{
    "editor": [
      {
        "icon": "",
        "key": "settings",
        "header": "Settings",
        "disabled": false,
        "fields": [
          {
            "key": "success_header",
            "header": "success_header",
            "type": "text"
          },
          {
            "key": "success_text",
            "header": "success_text",
            "type": "text"
          },
          {
            "key": "success_buttonText",
            "header": "success_buttonText",
            "type": "text"
          },
          {
            "key": "success_image",
            "header": "success_image",
            "type": "image"
          },
          {
            "key": "image",
            "header": "Image",
            "type": "image"
          },
          {
            "key": "title",
            "header": "title",
            "type": "text"
          },
          {
            "key":"headline",
            "header":"Header",
            "type" : "text"
          },
          {
            "key":"headline",
            "header":"Header",
            "type" : "text"
          },
          
          {
            "key":"enough_funds",
            "header":"enough_funds",
            "type" : "text"
          },
          {
            "key":"price",
            "header":"price",
            "type" : "text"
          }
          
        ]
      }
    ],
    "config": {
      "settings": {
        "success_header":"ETH tip has been sent",
        "success_text":"Thank you for helping me with my covid fund  intiative",
        "success_buttonText":"TIP AGAIN",
        "success_image":"./../images/image.jpg",
        "image": "./../images/image.jpg",
        "title":"CORONA RELIEF FUND",
        "headline":"Leave a Tip for Covid-19 Funds for underprivileged people of India",
        "Mob_headline":"Leave a Tip for Covid-19 Funds for underprivileged people of India",
        "enough_funds":"Not enough funds in your account to process tip",
        "price":""
      }
    }
  }